…
### Classification of the variables

    sapply(chickwts,class)
    
    weight      feed 
    "numeric"  "factor" 

### Tibbled Data set

We use **`as_tibble()`** for instant creation of data frames.

    chick_data = as_tibble(chickwts)
    chick_data
    
    # A tibble: 71 x 2
        weight feed     
        <dbl> <fct>    
     1    179 horsebean
     2    160 horsebean
     3    136 horsebean
     4    227 horsebean
     5    217 horsebean
     6    168 horsebean
     7    108 horsebean
     8    124 horsebean
     9    143 horsebean
    10    140 horsebean
    # ... with 61 more rows
…
